Chapter 5 Community composition | AlberdiLab | Romeo et al. 2024
…
family_summary <- genome_counts_by_host %>%
  group_by(sample,host_sp,family) %>%
  summarise(relabun=sum(count))

family_summary %>%
    group_by(family) %>%
    summarise(mean=mean(relabun, na.rm=TRUE),sd=sd(relabun, na.rm=TRUE)) %>%
    arrange(-mean)

# A tibble: 74 × 3
   family                   mean     sd
   <chr>                   <dbl>  <dbl>
 1 f__Lachnospiraceae    0.365   0.202 
 2 f__Bacteroidaceae     0.190   0.168 
 3 f__Oscillospiraceae   0.0923  0.0934
 4 f__Bifidobacteriaceae 0.0798  0.228 
 5 f__Muribaculaceae     0.0776  0.0964
 6 f__Ruminococcaceae    0.0314  0.0387
 7 f__Streptococcaceae   0.0164  0.0868
 8 f__Borkfalkiaceae     0.0144  0.0200
 9 f__Lactobacillaceae   0.0129  0.0405
10 f__CAG-74             0.00941 0.0128
# ℹ 64 more rows
…
genus_summary <- genome_counts_by_host %>%
  group_by(sample,host_sp,genus) %>%
  summarise(relabun=sum(count))

genus_summary %>%
    group_by(genus) %>%
    summarise(mean=mean(relabun, na.rm=TRUE),sd=sd(relabun, na.rm=TRUE)) %>%
    arrange(-mean)

# A tibble: 348 × 3
   genus                mean     sd
   <chr>               <dbl>  <dbl>
 1 g__Prevotella      0.0829 0.118 
 2 g__Bifidobacterium 0.0798 0.228 
 3 g__Acetatifactor   0.0488 0.0669
 4 g__Eisenbergiella  0.0350 0.0560
 5 g__                0.0315 0.0349
 6 g__Faecousia       0.0266 0.0362
 7 g__Phocaeicola     0.0255 0.0437
 8 g__CAG-95          0.0242 0.0369
 9 g__Roseburia       0.0226 0.0535
10 g__UBA3282         0.0193 0.0267
# ℹ 338 more rows
…
