Chapter 11 Diet analysis | AlberdiLab | Romeo et al. 2024
…
species_tannase <- genomes_by_species %>%
  filter(genome %in% mags_tannase)

host_tannase <- genome_counts_by_sample %>%
  filter(genome %in% mags_tannase)

host_tannase %>%
  group_by(host_sp, genome) %>%
  summarise(mean=mean(count)) %>%
  arrange(-mean)

# A tibble: 38 × 3
# Groups:   host_sp [2]
   host_sp              genome               mean
   <chr>                <chr>               <dbl>
 1 Sciurus carolinensis EHA02488_bin.89  0.00456 
 2 Sciurus carolinensis EHA02422_bin.11  0.00179 
 3 Sciurus vulgaris     EHA02549_bin.17  0.00135 
 4 Sciurus vulgaris     EHA02468_bin.23  0.00122 
 5 Sciurus vulgaris     EHA02526_bin.7   0.00105 
 6 Sciurus vulgaris     EHA02599_bin.11  0.000987
 7 Sciurus vulgaris     EHA02599_bin.27  0.000972
 8 Sciurus vulgaris     EHA02526_bin.177 0.000562
 9 Sciurus vulgaris     EHA02480_bin.4   0.000433
10 Sciurus vulgaris     EHA02526_bin.110 0.000403
# ℹ 28 more rows
…
